[
  {
    "objectCode":"GOOD",
    "title":"Good",
    "npCharacterRequestCodes":["GREETING"]
  },
  {
    "objectCode":"BAD",
    "title":"Bad",
    "npCharacterRequestCodes":["GREETING"]
  },
  {
    "objectCode":"YES",
    "title":"Yes",
    "npCharacterRequestCodes":["FOUND_EVERYTHING_QUESTION"]
  },
  {
    "objectCode":"NO",
    "title":"No",
    "npCharacterRequestCodes":["FOUND_EVERYTHING_QUESTION"]
  },
  {
    "objectCode":"CASH",
    "title":"Cash",
    "npCharacterRequestCodes":["CASH_CREDIT"]
  },
  {
    "objectCode":"CREDIT",
    "title":"Credit!",
    "npCharacterRequestCodes":["CASH_CREDIT"]
  },
  {
    "objectCode":"CELL_PHONE",
    "title":"My Cell Phone.",
    "npCharacterRequestCodes":["ACCUSATION"]
  },
  {
    "objectCode":"NOTHING",
    "title":"Nothing sir.",
    "npCharacterRequestCodes":["ACCUSATION"]
  },
  {
    "objectCode":"UNPAID_MERCHANDISE",
    "title":"Unpaid merchandise, you got me :(",
    "npCharacterRequestCodes":["ACCUSATION"]
  }
]